{
   "abstract": {
      "identification": {
         "rel": "CPF",
         "document": "068.498.166-59"
      },
      "transmitter": "Crediconta",
      "goal": "Abertura de conta corrente",
      "confirmationDate": "2021-05-31T18:23:03.112Z",
      "sharingTerm": "2021-11-31T18:23:03.112Z"
   },
   "accountType": "Conta Corrente",
   "id": 1,
   "status": "ACTIVE",
   "date": "15/07/2021 - 19:00",
   "bank": "Sicredi",
   "name": "Arthur Santana",
   "document": {
      "rel": "CPF",
      "identification": "068.498.166-59"
   },
   "age": 22,
   "gender": "Masculino",
   "birthday": "14/04/1999",
   "marital": "Solteiro",
   "email": "arthur.santana@sensedia.com",
   "phone": "43 4002-8922",
   "address": {
      "street": "Rua José Manoel Ruiz",
      "number": "90",
      "city": "Londrina",
      "uf": "PR",
      "addon": "Bl G Apto 103",
      "zip": "86076-200"
   },
   "schoolar": "Ensino Superior Completo"
}
